[
  {
    "id": 4997,
    "army": "Haqqislam",
    "army_id": 4999,
    "name": "Hassassin Bahram",
    "legacy_name": "Hassassin Bahram",
    "units": [
      {
        "comment": "Daylami Infantry",
        "id": 4001,
        "ava": "5"
      },
      {
        "comment": "Ghulam",
        "id": 4002,
        "ava": "4",
        "linkable": true
      },
      {
        "comment": "Hassassin Govads",
        "id": 4042,
        "ava": "5",
        "linkable": true
      },
      {
        "comment": "Hassassin Barid",
        "id": 4040,
        "ava": "2"
      },
      {
        "comment": "Hassassin Muyibs",
        "id": 4031,
        "ava": "6",
        "linkable": true
      },
      {
        "comment": "Hassassin Ragiks",
        "id": 4007,
        "ava": "4"
      },
      {
        "comment": "Hassassin Lasiqs",
        "id": 4030,
        "ava": "4",
        "linkable": true
      },
      {
        "comment": "Asawira Regiment",
        "id": 4025,
        "ava": "4",
        "note": "Fireteam: Haris may include up to 2 Muyibs"
      },
      {
        "comment": "Hassassin Áyyār",
        "id": 4047,
        "ava": "2"
      },
      {
        "comment": "Hassassin Fiday",
        "id": 4013,
        "ava": "2"
      },
      {
        "comment": "Hassassin Farzans",
        "id": 4029,
        "ava": "3"
      },
      {
        "comment": "Muttawi'ah",
        "id": 4015,
        "ava": "4"
      },
      {
        "comment": "Hussein Al-Djabel",
        "id": 4032,
        "ava": "1"
      },
      {
        "comment": "Rafiq Remote",
        "id": 4017,
        "ava": "2"
      },
      {
        "comment": "Shihab Remote",
        "id": 4018,
        "ava": "1"
      },
      {
        "comment": "Shaytaniyah Remote",
        "id": 4019,
        "ava": "1"
      },
      {
        "comment": "Fanous Remote",
        "id": 4020,
        "ava": "1"
      },
      {
        "comment": "Nasmat Remotes",
        "id": 4034,
        "ava": "2"
      },
      {
        "comment": "Kameel Remotes",
        "id": 4033,
        "ava": "2"
      },
      {
        "comment": "Najjarun Engineer",
        "id": 4016,
        "ava": "1"
      },
      {
        "comment": "Husam Spec-Ops",
        "id": 4037,
        "ava": "1"
      },
      {
        "comment": "Hassassin Husam Yasbir",
        "id": 4038,
        "ava": "1",
        "linkable": true,
        "note": "Non-infiltrating option counts as Muyib for Fireteam composition"
      },
      {
        "comment": "Husam Operative Leila Sharif",
        "id": 4048,
        "ava": "1",
        "linkable": true,
        "note": "Counts as Ghulam or Muyib for Fireteam composition"
      },
      {
        "comment": "Warcor",
        "id": 9017,
        "ava": "1"
      },
      {
        "comment": "Avicenna",
        "id": 9009,
        "ava": "1"
      }
    ]
  }
]
