[
  {
    "id": 1998,
    "army": "PanOceania",
    "army_id": 1999,
    "name": "Shock Army of Acontecimento",
    "legacy_name": "Shock Army of Acontecimento",
    "abbr": "Acontecimento",
    "units": [
      {
        "comment": "Acontecimento Regulars",
        "id": 1023,
        "ava": "T",
        "childs": [
          {
            "comment": "0 SWC Lieutenant is only available in Shock Army of Acontecimento",
            "id": 9,
            "swc": "0"
          }
        ],
        "linkable": true
      },
      {
        "comment": "Akalis",
        "id": 1004,
        "ava": "5"
      },
      {
        "comment": "Bagh-Mari",
        "id": 1003,
        "ava": "5",
        "linkable": true
      },
      {
        "comment": "Orc Troops",
        "id": 1006,
        "ava": "3"
      },
      {
        "comment": "Guarda de Assalto",
        "id": 1032,
        "ava": "4"
      },
      {
        "comment": "Knights of Montesa",
        "id": 1033,
        "ava": "2"
      },
      {
        "comment": "Dragoes",
        "id": 1012,
        "ava": "1"
      },
      {
        "comment": "Tikbalangs, Armoured Chasseurs of Acontecimento",
        "id": 1038,
        "ava": "2"
      },
      {
        "comment": "Nagas",
        "id": 7013,
        "ava": "2"
      },
      {
        "comment": "Teucer",
        "id": 7039,
        "ava": "1"
      },
      {
        "comment": "Kirpal Singh, Akalis Sergeant",
        "id": 1042,
        "ava": "1"
      },
      {
        "comment": "Lieutenant Stephen Rao",
        "id": 1049,
        "ava": "1",
        "linkable": true,
        "note": "Counts as Bagh Mari for Fireteam composition"
      },
      {
        "comment": "Drakios",
        "id": 7040,
        "ava": "1"
      },
      {
        "comment": "Scylla",
        "id": 7041,
        "ava": "1"
      },
      {
        "comment": "Pathfinder Dronbot",
        "id": 1018,
        "ava": "1"
      },
      {
        "comment": "Sierra Dronbot",
        "id": 1019,
        "ava": "1"
      },
      {
        "comment": "Clipper Dronbot",
        "id": 1020,
        "ava": "1"
      },
      {
        "comment": "Fugazi Dronbot",
        "id": 1021,
        "ava": "3"
      },
      {
        "comment": "Armbots: Bulleteers",
        "id": 1040,
        "ava": "2"
      },
      {
        "comment": "Armbots: Peacemakers",
        "id": 1041,
        "ava": "2"
      },
      {
        "comment": "Palbots",
        "id": 1028,
        "ava": "4"
      },
      {
        "comment": "Mulebots",
        "id": 1027,
        "ava": "2"
      },
      {
        "comment": "Trauma-Doc",
        "id": 1016,
        "ava": "1"
      },
      {
        "comment": "Machinist",
        "id": 1017,
        "ava": "2"
      },
      {
        "comment": "Indigo Spec-Ops",
        "id": 1045,
        "ava": "1"
      },
      {
        "comment": "Tech-Bees, Maintenance Battalions",
        "id": 1053,
        "ava": "1"
      },
      {
        "comment": "Warcor",
        "id": 9017,
        "ava": "1"
      }
    ]
  }
]
