[
  {
    "id": 2997,
    "army": "Yu Jing",
    "army_id": 2999,
    "name": "Imperial Service",
    "legacy_name": "Imperial Service",
    "units": [
      {
        "comment": "Celestial Guard",
        "id": 2022,
        "ava": "T",
        "linkable": true,
        "note": "Fireteam: Core with up to 3 Crane<br>Control Device profile may form Fireteam: Core with 1-4 Kuang Shi"
      },
      {
        "comment": "Bao Troop",
        "id": 2045,
        "ava": "4",
        "linkable": true,
        "note": "Fireteam: Core with 1 Pheasant and up to 4 Bao<br>Fireteam: Haris with Pheasant"
      },
      {
        "comment": "Zhànying Imperial Agents",
        "id": 2003,
        "ava": "4",
        "note": "1 Zhanying may join a Fireteam: Core of Wu Ming<br>Fireteam: Haris may include 1 Hsien"
      },
      {
        "comment": "Imperial Agent, Pheasant Rank",
        "id": 2029,
        "ava": "4",
        "note": "Fireteam: Core with 1 Pheasant and up to 4 Bao<br>Fireteam: Haris may include Bao"
      },
      {
        "comment": "Imperial Agents, Crane Rank",
        "id": 2031,
        "ava": "5",
        "linkable": true,
        "note": "Fireteam: Core with Celestial Guard and up to 3 Crane"
      },
      {
        "comment": "Wu Ming",
        "id": 2007,
        "ava": "5",
        "linkable": true,
        "note": "Fireteam: Core may include 1 Zhanying"
      },
      {
        "comment": "Hsien",
        "id": 2010,
        "ava": "4",
        "note": "1 may join Zhanying Haris"
      },
      {
        "comment": "Su-Jian Immediate Action Unit",
        "id": 2034,
        "ava": "3"
      },
      {
        "comment": "Ninjas",
        "id": 2013,
        "ava": "1"
      },
      {
        "comment": "Kǎnrèn Counter-Insurgency Group",
        "id": 2048,
        "ava": "3"
      },
      {
        "comment": "Kuang Shi",
        "id": 2027,
        "ava": "8",
        "linkable": true,
        "note": "Fireteam: Core with 1 Celestial Guard Kuang Shi Control Device"
      },
      {
        "comment": "Dakini Tacbots",
        "id": 7004,
        "ava": "2"
      },
      {
        "comment": "Garuda Tacbots",
        "id": 7008,
        "ava": "1"
      },
      {
        "comment": "Sophotects",
        "id": 7018,
        "ava": "1"
      },
      {
        "comment": "Sun Tze",
        "id": 2021,
        "ava": "1"
      },
      {
        "comment": "Sun Tze v.2 (Marksman Leader)",
        "id": 2042,
        "ava": "1"
      },
      {
        "comment": "Yáoxiè Rui Shi",
        "id": 2038,
        "ava": "2"
      },
      {
        "comment": "Yáoxiè Lù Duān",
        "id": 2039,
        "ava": "2"
      },
      {
        "comment": "Yáokòng Wèibīng",
        "id": 2017,
        "ava": "2"
      },
      {
        "comment": "Yáokòng Hùsòng",
        "id": 2018,
        "ava": "3"
      },
      {
        "comment": "Yáokòng Son-bae",
        "id": 2019,
        "ava": "1"
      },
      {
        "comment": "Yáokòng Chaīyì",
        "id": 2020,
        "ava": "1"
      },
      {
        "comment": "Yudbots",
        "id": 7019,
        "ava": "2"
      },
      {
        "comment": "Yáopú Pangguling",
        "id": 2026,
        "ava": "2"
      },
      {
        "comment": "Guǐ Fēng Spec-Ops",
        "id": 2043,
        "ava": "1"
      },
      {
        "comment": "Guǐ Fēng Xi Zhuang",
        "id": 2050,
        "ava": "1",
        "linkable": true,
        "note": "Counts as Celestial Guard for Fireteam composition"
      },
      {
        "comment": "Miranda Ashcroft (Ashcroft Hunting Party)",
        "id": 2051,
        "ava": "1",
        "note": "Fireteam: Duo with Authorized Bounty Hunters (Ashcroft Hunting Party)"
      },
      {
        "comment": "Authorized Bounty Hunters (Ashcroft Hunting Party)",
        "id": 2052,
        "ava": "1",
      },
      {
        "comment": "Father Lucien Sforza, Registered Bounty Hunter",
        "id": 2053,
        "ava": "1",
      },
      {
        "comment": "Authorized Bounty Hunters",
        "id": 9018,
        "ava": "2"
      },
      {
        "comment": "Warcor",
        "id": 9017,
        "ava": "1"
      },
      {
        "comment": "Miranda Ashcroft",
        "id": 9019,
        "ava": "1"
      },
      {
        "comment": "Father Lucien Sforza",
        "id": 9010,
        "ava": "1"
      },
      {
        "comment": "Major Lunah, ex-Ariesteia! Sniper",
        "id": 9029
      },
      {
        "comment": "Mercenary - CSU, Corporate Security Unit",
        "id": 9020,
        "ava": "2"
      }
    ]
  }
]
